,,,,,,,,,,,,,,,,,,,,,,,,,,,,,,,
,,,,,,,,,,,,,,,,,,,,,,,,,,,,,,,
,,,,,,,,,,,,,,,,,,,,,,,,,,,,,,,
title,description,category,sub category,secondary sub category,Tertiary sub category,Material of Construction,Material Grade,Material Specification Standard,a(X)b(X)c,Dimension 'a',Unit 'a',Dimension 'b',Unit 'b',Dimension 'c',Unit 'c',"Total Quantity
(TQ)","Quantity Sold
(QS)","Available quantity
AQ = (TQ-QS)",Unit of Measure (UOM),Unit Price,Currency,Supplier,country,state,City,Classification,Industry,Manufacturer/ Make,Remarks,Image,status
"GENERAL CABLE
POLYRAD 3C 12AWG,
AMOURED & SHEATHED",279200,Electrical,Cables,,,,,,,,,,,,,609.6,0,609.6,Meter,6.4,USD,Rexel Emirates,KSA,Eastern Province,Damam,Stock Material,"Marine 
Oil & Gas",GENERAL CABLE,,,
"GENERAL CABLE POLYRAD
4C 12AWG, AMOURED &
SHEATHED",279210,Electrical,Cables,,,,,,,,,,,,,937,0,937,Meter,7.1,USD,Rexel Emirates,KSA,Eastern Province,Damam,Stock Material,"Marine 
Oil & Gas",GENERAL CABLE,,,
"GENERAL CABLE POLYRAD
4C 10AWG, AMOURED &
SHEATHED",279230,Electrical,Cables,,,,,,,,,,,,,488.9,0,488.9,Meter,10.3,USD,Rexel Emirates,KSA,Eastern Province,Damam,Stock Material,"Marine 
Oil & Gas",GENERAL CABLE,,,
"GENERAL CABLE POLYRAD
3C 14AWG, AMOURED &
SHEATHED",279320,Electrical,Cables,,,,,,,,,,,,,304.8,0,304.8,Meter,6.9,USD,Rexel Emirates,KSA,Eastern Province,Damam,Stock Material,"Marine 
Oil & Gas",GENERAL CABLE,,,
"GENERAL CABLES TYPE P
4C 14AWG UNARMOURED",6​46020,Electrical,Cables,,,,,,,,,,,,,3048,0,3048,Meter,3.2,USD,Rexel Emirates,KSA,Eastern Province,Damam,Stock Material,"Marine 
Oil & Gas",GENERAL CABLE,,,
"GENERAL CABLE POLYRAD
1C 535MCM, UNAMOURED",644050,Electrical,Cables,,,,,,,,,,,,,211.8,0,211.8,Meter,34.3,USD,Rexel Emirates,KSA,Eastern Province,Damam,Stock Material,"Marine 
Oil & Gas",GENERAL CABLE,,,
"GENERAL CABLE POLYRAD
1C 777MCM, UNAMOURED",644090,Electrical,Cables,,,,,,,,,,,,,304.8,0,304.8,Meter,48.6,USD,Rexel Emirates,KSA,Eastern Province,Damam,Stock Material,"Marine 
Oil & Gas",GENERAL CABLE,,,
"GENERAL CABLE POLYRAD
3C 12AWG, UNAMOURED",646030,Electrical,Cables,,,,,,,,,,,,,727.3,0,727.3,Meter,3,USD,Rexel Emirates,KSA,Eastern Province,Damam,Stock Material,"Marine 
Oil & Gas",GENERAL CABLE,,,
"GENERAL CABLE POLYRAD
3C 12AWG, UNAMOURED",646030,Electrical,Cables,,,,,,,,,,,,,470.3,0,470.3,Meter,3,USD,Rexel Emirates,KSA,Eastern Province,Damam,Stock Material,"Marine 
Oil & Gas",GENERAL CABLE,,,
"GENERAL CABLE POLYRAD
3C 12AWG, UNAMOURED",646030,Electrical,Cables,,,,,,,,,,,,,306.3,0,306.3,Meter,3,USD,Rexel Emirates,KSA,Eastern Province,Damam,Stock Material,"Marine 
Oil & Gas",GENERAL CABLE,,,
"GENERAL CABLE POLYRAD
3C 12AWG, UNAMOURED",646030,Electrical,Cables,,,,,,,,,,,,,249.9,0,249.9,Meter,3,USD,Rexel Emirates,KSA,Eastern Province,Damam,Stock Material,"Marine 
Oil & Gas",GENERAL CABLE,,,
"GENERAL CABLE POLYRAD
3C 12AWG, UNAMOURED",646030,Electrical,Cables,,,,,,,,,,,,,714.8,0,714.8,Meter,3,USD,Rexel Emirates,KSA,Eastern Province,Damam,Stock Material,"Marine 
Oil & Gas",GENERAL CABLE,,,
"GENERAL CABLE POLYRAD
3C 12AWG, UNAMOURED",646030,Electrical,Cables,,,,,,,,,,,,,317.6,0,317.6,Meter,3,USD,Rexel Emirates,KSA,Eastern Province,Damam,Stock Material,"Marine 
Oil & Gas",GENERAL CABLE,,,
"GENERAL CABLE POLYRAD
3C 12AWG, UNAMOURED",646030,Electrical,Cables,,,,,,,,,,,,,449,0,449,Meter,3,USD,Rexel Emirates,KSA,Eastern Province,Damam,Stock Material,"Marine 
Oil & Gas",GENERAL CABLE,,,
"GENERAL CABLE POLYRAD
3C 12AWG, UNAMOURED",646030,Electrical,Cables,,,,,,,,,,,,,802.8,0,802.8,Meter,3,USD,Rexel Emirates,KSA,Eastern Province,Damam,Stock Material,"Marine 
Oil & Gas",GENERAL CABLE,,,
"GENERAL CABLE POLYRAD
3C 12AWG, UNAMOURED",646030,Electrical,Cables,,,,,,,,,,,,,534,0,534,Meter,3,USD,Rexel Emirates,KSA,Eastern Province,Damam,Stock Material,"Marine 
Oil & Gas",GENERAL CABLE,,,
"GENERAL CABLE POLYRAD
20C 12AWG, UNAMOURED",646040,Electrical,Cables,,,,,,,,,,,,,1582.5,0,1582.5,Meter,14.9,USD,Rexel Emirates,KSA,Eastern Province,Damam,Stock Material,"Marine 
Oil & Gas",GENERAL CABLE,,,
"GENERAL CABLE POLYRAD
20C 12AWG, UNAMOURED",646040,Electrical,Cables,,,,,,,,,,,,,1658.7,0,1658.7,Meter,14.9,USD,Rexel Emirates,KSA,Eastern Province,Damam,Stock Material,"Marine 
Oil & Gas",GENERAL CABLE,,,
"GENERAL CABLE POLYRAD
20C 12AWG, UNAMOURED",646040,Electrical,Cables,,,,,,,,,,,,,1663,0,1663,Meter,14.9,USD,Rexel Emirates,KSA,Eastern Province,Damam,Stock Material,"Marine 
Oil & Gas",GENERAL CABLE,,,
"GENERAL CABLE POLYRAD
20C 12AWG, UNAMOURED",646040,Electrical,Cables,,,,,,,,,,,,,1586.2,0,1586.2,Meter,14.9,USD,Rexel Emirates,KSA,Eastern Province,Damam,Stock Material,"Marine 
Oil & Gas",GENERAL CABLE,,,
"GENERAL CABLE POLYRAD
20C 12AWG, UNAMOURED",646040,Electrical,Cables,,,,,,,,,,,,,1129.6,0,1129.6,Meter,14.9,USD,Rexel Emirates,KSA,Eastern Province,Damam,Stock Material,"Marine 
Oil & Gas",GENERAL CABLE,,,
"GENERAL CABLE POLYRAD
4C 10AWG, UNAMOURED",646060,Electrical,Cables,,,,,,,,,,,,,731.5,0,731.5,Meter,14.9,USD,Rexel Emirates,KSA,Eastern Province,Damam,Stock Material,"Marine 
Oil & Gas",GENERAL CABLE,,,
"GENERAL CABLE POLYRAD
4C 10AWG, UNAMOURED",646060,Electrical,Cables,,,,,,,,,,,,,1440.8,0,1440.8,Meter,14.9,USD,Rexel Emirates,KSA,Eastern Province,Damam,Stock Material,"Marine 
Oil & Gas",GENERAL CABLE,,,
"GENERAL CABLES TYPE P,
4C 6AWG UNARMORED",646070,Electrical,Cables,,,,,,,,,,,,,550.5,0,550.5,Meter,13.6,USD,Rexel Emirates,KSA,Eastern Province,Damam,Stock Material,"Marine 
Oil & Gas",GENERAL CABLE,,,
"GENERAL CABLES TYPE P,
4C 6AWG UNARMORED",646070,Electrical,Cables,,,,,,,,,,,,,484.6,0,484.6,Meter,13.6,USD,Rexel Emirates,KSA,Eastern Province,Damam,Stock Material,"Marine 
Oil & Gas",GENERAL CABLE,,,
"GENERAL CABLES TYPE P,
4C 6AWG UNARMORED",646070,Electrical,Cables,,,,,,,,,,,,,304.8,0,304.8,Meter,13.6,USD,Rexel Emirates,KSA,Eastern Province,Damam,Stock Material,"Marine 
Oil & Gas",GENERAL CABLE,,,
"GENERAL CABLES TYPE P,
4C 6AWG UNARMORED",646070,Electrical,Cables,,,,,,,,,,,,,336.5,0,336.5,Meter,13.6,USD,Rexel Emirates,KSA,Eastern Province,Damam,Stock Material,"Marine 
Oil & Gas",GENERAL CABLE,,,
"GENERAL CABLE POLYRAD
4C 2AWG, UNAMOURED",646080,Electrical,Cables,,,,,,,,,,,,,1169.2,0,1169.2,Meter,24.9,USD,Rexel Emirates,KSA,Eastern Province,Damam,Stock Material,"Marine 
Oil & Gas",GENERAL CABLE,,,
"GENERAL CABLE POLYRAD
4C 2/0AWG, UNAMOURED",646100,Electrical,Cables,,,,,,,,,,,,,577.6,0,577.6,Meter,49.9,USD,Rexel Emirates,KSA,Eastern Province,Damam,Stock Material,"Marine 
Oil & Gas",GENERAL CABLE,,,
"GENERAL CABLE POLYRAD
4C 2/0AWG, UNAMOURED",646100,Electrical,Cables,,,,,,,,,,,,,606.2,0,606.2,Meter,49.9,USD,Rexel Emirates,KSA,Eastern Province,Damam,Stock Material,"Marine 
Oil & Gas",GENERAL CABLE,,,
"GENERAL CABLE POLYRAD
4C 2/0AWG, UNAMOURED",646100​,Electrical,Cables,,,,,,,,,,,,,100.3,0,100.3,Meter,49.9,USD,Rexel Emirates,KSA,Eastern Province,Damam,Stock Material,"Marine 
Oil & Gas",GENERAL CABLE,,,
"GENERAL CABLE POLYRAD
10C 12AWG, UNAMOURED",646890,Electrical,Cables,,,,,,,,,,,,,304.8,0,304.8,Meter,10,USD,Rexel Emirates,KSA,Eastern Province,Damam,Stock Material,"Marine 
Oil & Gas",GENERAL CABLE,,,
"GENERAL CABLE POLYRAD
4C 8AWG, UNAMOURED",658510,Electrical,Cables,,,,,,,,,,,,,1303.9,0,1303.9,Meter,8.3,USD,Rexel Emirates,KSA,Eastern Province,Damam,Stock Material,"Marine 
Oil & Gas",GENERAL CABLE,,,
